Integration of dimension instances • rolap
…
db_test |>
  get_unique_attribute_values('where_chain', attributes = 'chain')
#> # A tibble: 32 × 1
#>    chain        
#>    <chr>        
#>  1 " ,1-.% $1)="
#>  2 "1"          
#>  3 "11"         
#>  4 "14"         
#>  5 "15"         
#>  6 "19"         
#>  7 "2"          
#>  8 "21"         
#>  9 "219"        
#> 10 "22"         
#> # ℹ 22 more rows

db_test |>
  get_unique_attribute_values('where_chain')
#> # A tibble: 33 × 3
#>    chain         country segment        
#>    <chr>         <chr>   <chr>          
#>  1 " ,1-.% $1)=" CZE     Value for money
#>  2 " ,1-.% $1)=" SVK     Premium        
#>  3 "1"           CZE     Premium        
#>  4 "11"          CZE     Value for money
#>  5 "14"          CZE     Noname         
#>  6 "15"          CZE     Premium        
#>  7 "19"          CZE     Discount       
#>  8 "2"           CZE     Noname         
#>  9 "21"          CZE     Discount       
#> 10 "219"         SVK     Other          
#> # ℹ 23 more rows
…
Modification of a single value indicating several attributes

First, let’s start by fixing the bug introduced in the test star
database. For all of the above functions, we can define the parameter
col_as_vector that indicates to display the values as a
vector. We will see later that this can be useful to make changes to the
values, since it is the way to indicate them.

db_test |>
  get_unique_attribute_values(
    'where_chain',
    attributes = c('chain', 'country'),
    col_as_vector = "As a vector"
  )
#> # A tibble: 33 × 3
#>    chain         country `As a vector`          
#>    <chr>         <chr>   <chr>                  
#>  1 " ,1-.% $1)=" CZE     c(' ,1-.% $1)=', 'CZE')
#>  2 " ,1-.% $1)=" SVK     c(' ,1-.% $1)=', 'SVK')
#>  3 "1"           CZE     c('1', 'CZE')          
#>  4 "11"          CZE     c('11', 'CZE')         
#>  5 "14"          CZE     c('14', 'CZE')         
#>  6 "15"          CZE     c('15', 'CZE')         
#>  7 "19"          CZE     c('19', 'CZE')         
#>  8 "2"           CZE     c('2', 'CZE')          
#>  9 "21"          CZE     c('21', 'CZE')         
#> 10 "219"         SVK     c('219', 'SVK')        
#> # ℹ 23 more rows
…
db_summary2 |>
  get_unique_attribute_values(
    'where_chain',
    attributes = c('chain', 'country'),
    col_as_vector = "As a vector"
  )
#> # A tibble: 33 × 3
#>    chain country `As a vector`  
#>    <chr> <chr>   <chr>          
#>  1 1     CZE     c('1', 'CZE')  
#>  2 11    CZE     c('11', 'CZE') 
#>  3 13    CZE     c('13', 'CZE') 
#>  4 130   SVK     c('130', 'SVK')
#>  5 14    CZE     c('14', 'CZE') 
#>  6 15    CZE     c('15', 'CZE') 
#>  7 19    CZE     c('19', 'CZE') 
#>  8 2     CZE     c('2', 'CZE')  
#>  9 21    CZE     c('21', 'CZE') 
#> 10 219   SVK     c('219', 'SVK')
#> # ℹ 23 more rows
…
Modification of instances in role-playing and role dimensions

The two When dimensions are role-playing and role
dimensions. That is, they have the same instances and one can be
obtained from the other by renaming attributes if necessary and of
course the table.

db_summary3 |>
  get_role_playing_dimension_names()
#> $rpd_1
#> [1] "when"      "when_paid"

db_summary3 |>
  get_unique_attribute_values('when')
#> # A tibble: 84 × 2
#>    date       hour 
#>    <chr>      <chr>
#>  1 2012-08-23 09   
#>  2 2012-08-23 20   
#>  3 2012-08-23 21   
#>  4 2012-08-23 22   
#>  5 2012-08-23 23   
#>  6 2012-08-24 00   
#>  7 2012-08-24 03   
#>  8 2012-08-24 04   
#>  9 2012-08-24 05   
#> 10 2012-08-24 06   
#> # ℹ 74 more rows

db_summary3 |>
  get_unique_attribute_values('when_paid')
#> # A tibble: 84 × 2
#>    date       hour 
#>    <chr>      <chr>
#>  1 2012-08-23 09   
#>  2 2012-08-23 20   
#>  3 2012-08-23 21   
#>  4 2012-08-23 22   
#>  5 2012-08-23 23   
#>  6 2012-08-24 00   
#>  7 2012-08-24 03   
#>  8 2012-08-24 04   
#>  9 2012-08-24 05   
#> 10 2012-08-24 06   
#> # ℹ 74 more rows
…
sum(db_tl[['transaction_summary']]$transactions)
#> [1] 1000

Modifications of instances in a constellation

To define a constellation we need at least two star databases. We
consider the other star database from the starting example. We look at
the instances of the what dimension.

db_finest |>
  get_unique_attribute_values('what', col_as_vector = "As a vector")
#> # A tibble: 27 × 2
#>    product       `As a vector`     
#>    <chr>         <chr>             
#>  1 Additivum     c('Additivum')    
#>  2 Autokosmet.   c('Autokosmet.')  
#>  3 Autokozmetik  c('Autokozmetik') 
#>  4 Autoprísluš.  c('Autoprísluš.') 
#>  5 Dalnic.popl.  c('Dalnic.popl.') 
#>  6 Diesel        c('Diesel')       
#>  7 Diesel +      c('Diesel +')     
#>  8 Diesel aditiv c('Diesel aditiv')
#>  9 Knihy,nov.    c('Knihy,nov.')   
#> 10 LPG           c('LPG')          
#> # ℹ 17 more rows
Suppose some instances of this dimension are also modified, as shown
below.

db_finest2 <- db_finest |>
  replace_attribute_values(
    name = 'what',
    attributes = 'product',
    old = c('Additivum', 'Autokozmetik'),
    new = c('Other')
  ) |>
  group_dimension_instances(name = 'what')

db_finest2 |>
  get_unique_attribute_values('what', col_as_vector = "As a vector")
#> # A tibble: 26 × 2
#>    product       `As a vector`     
#>    <chr>         <chr>             
#>  1 Autokosmet.   c('Autokosmet.')  
#>  2 Autoprísluš.  c('Autoprísluš.') 
#>  3 Dalnic.popl.  c('Dalnic.popl.') 
#>  4 Diesel        c('Diesel')       
#>  5 Diesel +      c('Diesel +')     
#>  6 Diesel aditiv c('Diesel aditiv')
#>  7 Knihy,nov.    c('Knihy,nov.')   
#>  8 LPG           c('LPG')          
#>  9 Mytí vozidel  c('Mytí vozidel') 
#> 10 Nafta         c('Nafta')        
#> # ℹ 16 more rows
…
Transformations in just one star database

For the dimension When, transformations were defined in only
one of the star databases. The role-playing and role dimensions of the
two star databases are also integrated. As a result, modifications are
carried over from one star database to the other.

ct |>
  get_role_playing_dimension_names()
#> $rpd_1
#> [1] "when"           "when_paid"      "when_processed"

ct |>
  get_unique_attribute_values('when_processed')
#> # A tibble: 124 × 2
#>    date       hour   
#>    <chr>      <chr>  
#>  1 2012-08-23 09     
#>  2 2012-08-23 20     
#>  3 2012-08-23 21     
#>  4 2012-08-23 22     
#>  5 2012-08-23 23     
#>  6 2012-08-23 Evening
#>  7 2012-08-23 Morning
#>  8 2012-08-23 Night  
#>  9 2012-08-24 00     
#> 10 2012-08-24 03     
#> # ℹ 114 more rows

The result is shown for dimension when_processed, which is
not part of the star database on which the modifications were defined
but it is modified.

Transformations in both star databases

In the case of the what dimension, transformations have been
carried out in both star databases: They are combined taking the new
operations from one database to another.

ct |>
  get_unique_attribute_values('what', col_as_vector = "As a vector")
#> # A tibble: 29 × 2
#>    product       `As a vector`     
#>    <chr>         <chr>             
#>  1 Additivum     c('Additivum')    
#>  2 Autokosmet.   c('Autokosmet.')  
#>  3 Autokozmetik  c('Autokozmetik') 
#>  4 Autoprísluš.  c('Autoprísluš.') 
#>  5 Dalnic.popl.  c('Dalnic.popl.') 
#>  6 Diesel        c('Diesel')       
#>  7 Diesel +      c('Diesel +')     
#>  8 Diesel aditiv c('Diesel aditiv')
#>  9 Knihy,nov.    c('Knihy,nov.')   
#> 10 LPG           c('LPG')          
#> # ℹ 19 more rows
…
ct2 <- ct |>
  replace_attribute_values(
    name = 'what',
    attributes = 'product',
    old = c('Autokozmetik'),
    new = c('Other')
  ) |>
  group_dimension_instances(name = 'what')
#> Warning in res$name == name: longer object length is not a multiple of shorter
#> object length

ct2 |>
  get_unique_attribute_values('what', col_as_vector = "As a vector")
#> # A tibble: 28 × 2
#>    product       `As a vector`     
#>    <chr>         <chr>             
#>  1 Additivum     c('Additivum')    
#>  2 Autokosmet.   c('Autokosmet.')  
#>  3 Autoprísluš.  c('Autoprísluš.') 
#>  4 Dalnic.popl.  c('Dalnic.popl.') 
#>  5 Diesel        c('Diesel')       
#>  6 Diesel +      c('Diesel +')     
#>  7 Diesel aditiv c('Diesel aditiv')
#>  8 Knihy,nov.    c('Knihy,nov.')   
#>  9 LPG           c('LPG')          
#> 10 Mytí vozidel  c('Mytí vozidel') 
#> # ℹ 18 more rows
…
