Incremental refresh of star databases • rolap
…
Instances included in the structure

Seeing the new instances that are going to be added to the dimensions
can help us determine whether or not we need to modify the
transformation code. We can do this using the
get_new_dimension_instances() function, as shown below.

mrs_db_age_refresh |>
  get_new_dimension_instances()
#> $when
#> # A tibble: 110 × 3
#>    year  week  week_ending_date
#>    <chr> <chr> <chr>           
#>  1 1962  "48"  12/01/1962      
#>  2 1963  " 3"  01/19/1963      
#>  3 1963  " 7"  02/16/1963      
#>  4 1964  "10"  03/07/1964      
#>  5 1964  "12"  03/21/1964      
#>  6 1964  "20"  05/16/1964      
#>  7 1966  "26"  07/02/1966      
#>  8 1966  "47"  11/26/1966      
#>  9 1967  "10"  03/11/1967      
#> 10 1967  "22"  06/03/1967      
#> # ℹ 100 more rows
…
Existing fact instances

To perform the incremental refresh operation, we must determine what
happens to the fact table instances that were already included in the
original star database. We can query existing fact instances using the
get_existing_fact_instances() function, as can be seen
below for each of the star databases.

mrs_db_age_refresh |>
  get_existing_fact_instances()
#> # A tibble: 200 × 14
#>    year  week  week_ending_date region state city  city_state status pop   lat  
#>    <chr> <chr> <chr>            <chr>  <chr> <chr> <chr>      <chr>  <chr> <chr>
#>  1 1963  "25"  06/22/1963       1      MA    Spri… Springfie… non-c… "  1… 42.1 
#>  2 1963  "25"  06/22/1963       1      MA    Spri… Springfie… non-c… "  1… 42.1 
#>  3 1963  "25"  06/22/1963       1      MA    Spri… Springfie… non-c… "  1… 42.1 
#>  4 1963  "25"  06/22/1963       1      MA    Spri… Springfie… non-c… "  1… 42.1 
#>  5 1963  "25"  06/22/1963       1      MA    Spri… Springfie… non-c… "  1… 42.1 
#>  6 1965  " 5"  02/06/1965       4      KS    Wich… Wichita KS non-c… "  3… 37.7 
#>  7 1965  " 5"  02/06/1965       4      KS    Wich… Wichita KS non-c… "  3… 37.7 
#>  8 1965  " 5"  02/06/1965       4      KS    Wich… Wichita KS non-c… "  3… 37.7 
#>  9 1965  " 5"  02/06/1965       4      KS    Wich… Wichita KS non-c… "  3… 37.7 
#> 10 1965  " 5"  02/06/1965       4      KS    Wich… Wichita KS non-c… "  3… 37.7 
#> # ℹ 190 more rows
#> # ℹ 4 more variables: long <chr>, age <chr>, all_deaths <int>, nrow_agg <int>

mrs_db_cause_refresh |>
  get_existing_fact_instances()
#> # A tibble: 40 × 14
#>    year  week  week_ending_date region state city  city_state status pop   lat  
#>    <chr> <chr> <chr>            <chr>  <chr> <chr> <chr>      <chr>  <chr> <chr>
#>  1 1963  "25"  06/22/1963       1      MA    Spri… Springfie… non-c… "  1… 42.1 
#>  2 1965  " 5"  02/06/1965       4      KS    Wich… Wichita KS non-c… "  3… 37.7 
#>  3 1966  "35"  09/03/1966       9      CA    Long… Long Beac… non-c… "  4… 33.8 
#>  4 1966  "41"  10/15/1966       9      CA    San … San Jose … non-c… "  8… 37.3 
#>  5 1968  "29"  07/20/1968       3      OH    Youn… Youngstow… non-c… "   … 41.1 
#>  6 1971  "28"  07/17/1971       3      IL    Chic… Chicago IL non-c… "2,8… 41.8 
#>  7 1973  " 6"  02/10/1973       2      NY    Syra… Syracuse … non-c… "  1… 43.0 
#>  8 1974  "49"  12/07/1974       5      FL    Tampa Tampa FL   non-c… "  3… 28.0 
#>  9 1976  "48"  12/04/1976       9      CA    Fres… Fresno CA  non-c… "  4… 36.8 
#> 10 1977  "21"  05/28/1977       6      TN    Memp… Memphis TN non-c… "  6… 35.1 
#> # ℹ 30 more rows
#> # ℹ 4 more variables: long <chr>, pneumonia_and_influenza_deaths <int>,
#> #   all_deaths <int>, nrow_agg <int>
…
