Deployment of star databases with incremental refresh • rolap
…
New data

The update data is stored in the form of a flat table in the
package’s mrs_ft_new variable. Below are the first records
of the table. We access the table using the get_table()
function for the object of the flat_table class.

ft <- mrs_ft_new |> 
  get_table()

ft
#> # A tibble: 375 × 13
#>    Year  WEEK  `Week Ending Date` REGION State City       Pneumonia and Influe…¹
#>    <chr> <chr> <chr>              <chr>  <chr> <chr>      <chr>                 
#>  1 1962  48    12/01/1962         2      NY    Buffalo    5                     
#>  2 1963  3     01/19/1963         4      IA    Des Moines 2                     
#>  3 1963  6     02/09/1963         8      CO    Pueblo     0                     
#>  4 1963  7     02/16/1963         7      TX    El Paso    0                     
#>  5 1963  25    06/22/1963         1      MA    Springfie… 5                     
#>  6 1964  10    03/07/1964         1      MA    Cambridge  3                     
#>  7 1964  12    03/21/1964         8      CO    Colorado … 1                     
#>  8 1964  20    05/16/1964         3      IL    Chicago    34                    
#>  9 1964  20    05/16/1964         8      CO    Pueblo     0                     
#> 10 1964  27    07/04/1964         3      OH    Akron      0                     
#> # ℹ 365 more rows
#> # ℹ abbreviated name: ¹​`Pneumonia and Influenza Deaths`
#> # ℹ 6 more variables: `All Deaths` <chr>, `<1 year (all cause deaths)` <chr>,
#> #   `1-24 years (all cause deaths)` <chr>, `25-44 years` <chr>,
#> #   `45-64 years (all cause deaths)` <chr>,
#> #   `65+ years (all cause deaths)` <chr>
…
