Star Database Export Features • rolap
…
We can generate a tibble list from the component tables
or from the flat tables obtained from them.

From component tables

Using the as_tibble_list() function, we get a
tibble list with the dimension and fact tables, as shown
below.

tl <- mrs_db |>
  as_tibble_list()

tl
#> $when
#> # A tibble: 1,966 × 4
#>    when_key year  week  week_ending_date
#>       <int> <chr> <chr> <chr>           
#>  1        1 1962  " 1"  01/06/1962      
#>  2        2 1962  " 2"  01/13/1962      
#>  3        3 1962  " 5"  02/03/1962      
#>  4        4 1962  " 6"  02/10/1962      
#>  5        5 1962  " 8"  02/24/1962      
#>  6        6 1962  " 9"  03/03/1962      
#>  7        7 1962  "12"  03/24/1962      
#>  8        8 1962  "14"  04/07/1962      
#>  9        9 1962  "15"  04/14/1962      
#> 10       10 1962  "18"  05/05/1962      
#> # ℹ 1,956 more rows
#> 
#> $where
#> # A tibble: 120 × 9
#>    where_key region state city        city_state     status    pop   lat   long 
#>        <int> <chr>  <chr> <chr>       <chr>          <chr>     <chr> <chr> <chr>
#>  1         1 1      CT    Bridgeport  Bridgeport CT  non-capi… "  1… 41.2  " -7…
#>  2         2 1      CT    Hartford    Hartford CT    state ca… "  1… 41.8  " -7…
#>  3         3 1      CT    New Haven   New Haven CT   non-capi… "  1… 41.3  " -7…
#>  4         4 1      CT    Waterbury   Waterbury CT   non-capi… "  1… 41.6  " -7…
#>  5         5 1      MA    Cambridge   Cambridge MA   non-capi… "  1… 42.4  " -7…
#>  6         6 1      MA    Fall River  Fall River MA  non-capi… "   … 41.7  " -7…
#>  7         7 1      MA    Lowell      Lowell MA      non-capi… "  1… 42.6  " -7…
#>  8         8 1      MA    Lynn        Lynn MA        non-capi… "   … 42.5  " -7…
#>  9         9 1      MA    New Bedford New Bedford MA non-capi… "   … 41.7  " -7…
#> 10        10 1      MA    Somerville  Somerville MA  non-capi… "   … 42.4  " -7…
#> # ℹ 110 more rows
#> 
#> $who
#> # A tibble: 5 × 2
#>   who_key age        
#>     <int> <chr>      
#> 1       1 1-24 years 
#> 2       2 25-44 years
#> 3       3 45-64 years
#> 4       4 65+ years  
#> 5       5 <1 year    
#> 
#> $mrs_cause
#> # A tibble: 3,342 × 5
#>    when_key where_key pneumonia_and_influenza_deaths all_deaths nrow_agg
#>       <int>     <int>                          <int>      <int>    <int>
#>  1        1        87                              2         69        1
#>  2        2         8                              1         28        1
#>  3        2        10                              2         21        1
#>  4        2        64                             10        220        1
#>  5        2        97                              2         12        1
#>  6        3        15                              2         32        1
#>  7        4         6                              0         31        1
#>  8        4        15                              1         32        1
#>  9        4       119                              2         51        1
#> 10        5        36                              0         39        1
#> # ℹ 3,332 more rows
#> 
#> $mrs_age
#> # A tibble: 16,565 × 5
#>    when_key where_key who_key all_deaths nrow_agg
#>       <int>     <int>   <int>      <int>    <int>
#>  1        1        87       1          1        1
#>  2        1        87       2          5        1
#>  3        1        87       3         17        1
#>  4        1        87       4         41        1
#>  5        1        87       5          5        1
#>  6        2         8       1          0        1
#>  7        2         8       2          2        1
#>  8        2         8       3         11        1
#>  9        2         8       4         14        1
#> 10        2         8       5          1        1
#> # ℹ 16,555 more rows

From flat tables

Using the as_single_tibble_list() function, we also get
a tibble list but in this case the fact and dimension
tables have been merged to form a flat table as shown below.

tl <- mrs_db |>
  as_single_tibble_list()

tl
#> $mrs_cause
#> # A tibble: 3,342 × 14
#>    year  week  week_ending_date region state city  city_state status pop   lat  
#>    <chr> <chr> <chr>            <chr>  <chr> <chr> <chr>      <chr>  <chr> <chr>
#>  1 1962  " 1"  01/06/1962       7      OK    Tulsa Tulsa OK   non-c… "  3… 36.1 
#>  2 1962  " 2"  01/13/1962       1      MA    Lynn  Lynn MA    non-c… "   … 42.5 
#>  3 1962  " 2"  01/13/1962       1      MA    Some… Somervill… non-c… "   … 42.4 
#>  4 1962  " 2"  01/13/1962       5      DC    Wash… Washingto… non-c… "  5… 38.9 
#>  5 1962  " 2"  01/13/1962       8      CO    Colo… Colorado … non-c… "  3… 38.9 
#>  6 1962  " 5"  02/03/1962       2      NJ    Eliz… Elizabeth… non-c… "  1… 40.7 
#>  7 1962  " 6"  02/10/1962       1      MA    Fall… Fall Rive… non-c… "   … 41.7 
#>  8 1962  " 6"  02/10/1962       2      NJ    Eliz… Elizabeth… non-c… "  1… 40.7 
#>  9 1962  " 6"  02/10/1962       9      WA    Spok… Spokane WA non-c… "  1… 47.7 
#> 10 1962  " 8"  02/24/1962       3      IL    Rock… Rockford … non-c… "  1… 42.3 
#> # ℹ 3,332 more rows
#> # ℹ 4 more variables: long <chr>, pneumonia_and_influenza_deaths <int>,
#> #   all_deaths <int>, nrow_agg <int>
#> 
#> $mrs_age
#> # A tibble: 16,565 × 14
#>    year  week  week_ending_date region state city  city_state status pop   lat  
#>    <chr> <chr> <chr>            <chr>  <chr> <chr> <chr>      <chr>  <chr> <chr>
#>  1 1962  " 1"  01/06/1962       7      OK    Tulsa Tulsa OK   non-c… "  3… 36.1 
#>  2 1962  " 1"  01/06/1962       7      OK    Tulsa Tulsa OK   non-c… "  3… 36.1 
#>  3 1962  " 1"  01/06/1962       7      OK    Tulsa Tulsa OK   non-c… "  3… 36.1 
#>  4 1962  " 1"  01/06/1962       7      OK    Tulsa Tulsa OK   non-c… "  3… 36.1 
#>  5 1962  " 1"  01/06/1962       7      OK    Tulsa Tulsa OK   non-c… "  3… 36.1 
#>  6 1962  " 2"  01/13/1962       1      MA    Lynn  Lynn MA    non-c… "   … 42.5 
#>  7 1962  " 2"  01/13/1962       1      MA    Lynn  Lynn MA    non-c… "   … 42.5 
#>  8 1962  " 2"  01/13/1962       1      MA    Lynn  Lynn MA    non-c… "   … 42.5 
#>  9 1962  " 2"  01/13/1962       1      MA    Lynn  Lynn MA    non-c… "   … 42.5 
#> 10 1962  " 2"  01/13/1962       1      MA    Lynn  Lynn MA    non-c… "   … 42.5 
#> # ℹ 16,555 more rows
#> # ℹ 4 more variables: long <chr>, age <chr>, all_deaths <int>, nrow_agg <int>
…
